Project 1: Exploratory Data Analysis
…
library(tidyverse)
library(dplyr)
library(ggplot2)
library(fivethirtyeight)
library(reshape2)

draft <- nba_draft_2015
draymond <- nba_draymond
tatt <- nba_tattoos
view(draft)
view(draymond)
view(tatt)
draft %>% select(-projected_spm, -id)

## # A tibble: 1,090 x 7
##    player                position draft_year superstar starter role_player  bust
##    <chr>                 <chr>         <int>     <dbl>   <dbl>       <dbl> <dbl>
##  1 Karl-Anthony Towns    C              2015    0.135    0.427      0.163  0.275
##  2 Justise Winslow       SF             2015    0.0835   0.511      0.177  0.229
##  3 Stanley Johnson       SF             2015    0.0678   0.424      0.278  0.230
##  4 Jahlil Okafor         C              2015    0.0587   0.410      0.236  0.296
##  5 D`Angelo Russell      PG             2015    0.152    0.342      0.0966 0.409
##  6 Dakari Johnson        C              2015    0.0213   0.368      0.418  0.194
##  7 Devin Booker          SG             2015    0.0734   0.324      0.390  0.212
##  8 Willie Cauley-Stein   C              2015    0.0471   0.406      0.243  0.304
##  9 Rondae Hollis-Jeffer… SF             2015    0.0146   0.369      0.392  0.224
## 10 Trey Lyles            PF             2015    0.0224   0.351      0.403  0.223
## # … with 1,080 more rows
…
draymond %>% summarize_all(n_distinct)

## # A tibble: 1 x 4
##   season player possessions draymond
##    <int>  <int>       <int>    <int>
## 1      6    974        3007     2995

draftndray <- cleandraft %>% left_join(draymond)
tatt %>% mutate(player = player_name)

## # A tibble: 636 x 3
##    player_name      tattoos player          
##    <chr>            <lgl>   <chr>           
##  1 A.J. Price       FALSE   A.J. Price      
##  2 Aaron Gray       FALSE   Aaron Gray      
##  3 Al Horford       FALSE   Al Horford      
##  4 Al Jefferson     FALSE   Al Jefferson    
##  5 Al Thornton      FALSE   Al Thornton     
##  6 Alan Anderson    FALSE   Alan Anderson   
##  7 Alec Burks       FALSE   Alec Burks      
##  8 Alexey Shved     FALSE   Alexey Shved    
##  9 Anderson Varejao FALSE   Anderson Varejao
## 10 Andrea Bargnani  FALSE   Andrea Bargnani 
## # … with 626 more rows
…
After using joining the three datasets with left joins (to maintain the structure of the Draft data set), all of the rows that contained NA were removed and then saved as the dataset “nona”. This dataset contains 1289 observations with 11 different variables. After summarizing all of the unique variables we see that there are 307 unique players left in the dataset across 6 different seasons and 14 different draft years. All of these players have data for projections, defense, tattoos, positions, and names. While joining the data sets, about 2/3 of the data was lost (778 out of the original 1085). This could cause issues when making claims about the entire NBA, however, this cleaner dataset contains more “well-known” names that may be more relevant yet constricting to the overall hypothesis.

#Summary Statistics

hope <- nona %>% group_by(draft_year, position) %>% summarize(mean_super = mean(superstar), 
    mean_bust = mean(bust), total = n_distinct(player)) %>% arrange(-mean_super)

combodata %>% group_by(draft_year, position) %>% summarize(mean_super = mean(superstar), 
    mean_bust = mean(bust), total = n_distinct(player)) %>% arrange(-mean_super)

## # A tibble: 75 x 5
## # Groups:   draft_year [15]
##    draft_year position mean_super mean_bust total
##         <int> <chr>         <dbl>     <dbl> <int>
##  1       2014 C            0.0637     0.435     5
##  2       2008 PF           0.0476     0.401    18
##  3       2008 PG           0.0472     0.457    13
##  4       2005 PG           0.0464     0.448    14
##  5       2015 C            0.0459     0.356     7
##  6       2005 SF           0.0446     0.427    12
##  7       2006 PG           0.0441     0.441    15
##  8       2009 PG           0.0412     0.445    21
##  9       2008 SG           0.0380     0.476    18
## 10       2004 SF           0.0353     0.429    10
## # … with 65 more rows
…
